[2016-12-16 18:04:46.120] [INFO] results - CASE PASSED : userAuthentication.login
[2016-12-16 18:04:47.324] [ERROR] results - CASE FAILED : notification-/api/customlist/results = notification.txt
[2016-12-16 18:04:48.476] [ERROR] results - RETRIED CASE FAILED 1 time : notification-/api/customlist/results =notification.txt
[2016-12-16 18:04:49.658] [ERROR] results - RETRIED CASE FAILED 2 time : notification-/api/customlist/results =notification.txt
[2016-12-16 18:04:50.744] [ERROR] results - RETRIED CASE FAILED 3 time : notification-/api/customlist/results =notification.txt
[2016-12-16 18:04:51.969] [ERROR] results - RETRIED CASE FAILED 4 time : notification-/api/customlist/results =notification.txt
[2016-12-16 18:05:26.150] [INFO] results - CASE PASSED : userAuthentication.login
[2016-12-16 18:05:29.106] [INFO] results - CASE PASSED : sessionInitialize.init
[2016-12-16 18:05:30.369] [ERROR] results - CASE FAILED : hrmEntity-/api/hrmentity/list/retrieve -> ActivityCategoryy=hrmEntity.txt
[2016-12-16 18:05:31.590] [ERROR] results - RETRIED CASE FAILED 1 time : hrmEntity-/api/hrmentity/list/retrieve -> ActivityCategoryy=hrmEntity.txt
[2016-12-16 18:05:32.783] [ERROR] results - RETRIED CASE FAILED 2 time : hrmEntity-/api/hrmentity/list/retrieve -> ActivityCategoryy=hrmEntity.txt
[2016-12-16 18:05:33.956] [ERROR] results - RETRIED CASE FAILED 3 time : hrmEntity-/api/hrmentity/list/retrieve -> ActivityCategoryy=hrmEntity.txt
[2016-12-16 18:05:35.164] [ERROR] results - RETRIED CASE FAILED 4 time : hrmEntity-/api/hrmentity/list/retrieve -> ActivityCategoryy=hrmEntity.txt
[2016-12-16 18:05:36.306] [INFO] results - CASE PASSED : hrmEntity-/api/hrmentity/list/retrieve -> ActivitySubCategory
[2016-12-16 18:05:37.423] [INFO] results - CASE PASSED : hrmEntity-/api/hrmentity/list/retrieve -> CampaignType
[2016-12-16 18:05:38.584] [INFO] results - CASE PASSED : hrmEntity-/api/hrmentity/list/retrieve -> CompetitiveLab
[2016-12-16 18:05:39.716] [INFO] results - CASE PASSED : hrmEntity-/api/hrmentity/list/retrieve -> ContactType
[2016-12-16 18:05:40.854] [INFO] results - CASE PASSED : hrmEntity-/api/hrmentity/list/retrieve -> CorrectiveAction
[2016-12-16 18:05:41.974] [INFO] results - CASE PASSED : hrmEntity-/api/hrmentity/list/retrieve -> ElectronicMedicalRecord
[2016-12-16 18:05:43.143] [INFO] results - CASE PASSED : hrmEntity-/api/hrmentity/list/retrieve -> OpportunityStage
[2016-12-16 18:05:44.301] [INFO] results - CASE PASSED : hrmEntity-/api/hrmentity/list/retrieve -> OpportunityType
[2016-12-16 18:05:45.429] [INFO] results - CASE PASSED : hrmEntity-/api/hrmentity/list/retrieve -> OrganizationType
[2016-12-16 18:05:46.654] [INFO] results - CASE PASSED : hrmEntity-/api/hrmentity/list/retrieve -> RootCause
[2016-12-16 18:05:48.006] [INFO] results - CASE PASSED : hrmEntity-/api/hrmentity/list/retrieve -> Specialty
[2016-12-16 18:05:49.129] [INFO] results - CASE PASSED : hrmEntity-/api/hrmentity/activitystatus/list/retrieve
[2016-12-16 18:05:50.260] [INFO] results - CASE PASSED : hrmEntity-/api/activity/priority/list
[2016-12-16 18:05:51.410] [ERROR] results - CASE FAILED : search.retrieveViewId -> AccessControlTreee=search.txt
[2016-12-16 18:05:52.558] [ERROR] results - RETRIED CASE FAILED 1 time : search.retrieveViewId -> AccessControlTreee=search.txt
[2016-12-16 18:05:53.745] [ERROR] results - RETRIED CASE FAILED 2 time : search.retrieveViewId -> AccessControlTreee=search.txt
[2016-12-16 18:05:54.884] [ERROR] results - RETRIED CASE FAILED 3 time : search.retrieveViewId -> AccessControlTreee=search.txt
[2016-12-16 18:05:56.073] [ERROR] results - RETRIED CASE FAILED 4 time : search.retrieveViewId -> AccessControlTreee=search.txt
[2016-12-16 18:05:57.470] [INFO] results - CASE PASSED : search.retrieveViewId -> Campaign
[2016-12-16 18:05:58.758] [INFO] results - CASE PASSED : search.retrieveViewId -> Message
[2016-12-16 18:06:00.132] [INFO] results - CASE PASSED : search.retrieveViewId -> Notification
[2016-12-16 18:06:01.904] [INFO] results - CASE PASSED : search.retrieveViewId -> OrganizationActivities
[2016-12-16 18:07:37.565] [INFO] results - CASE PASSED : userAuthentication.login
[2016-12-16 18:07:40.464] [INFO] results - CASE PASSED : sessionInitialize.init
[2016-12-16 18:07:41.659] [INFO] results - CASE PASSED : hrmEntity-/api/hrmentity/list/retrieve -> ActivityCategory
[2016-12-16 18:07:42.840] [INFO] results - CASE PASSED : hrmEntity-/api/hrmentity/list/retrieve -> ActivitySubCategory
[2016-12-16 18:07:43.937] [INFO] results - CASE PASSED : hrmEntity-/api/hrmentity/list/retrieve -> CampaignType
[2016-12-16 18:07:45.051] [INFO] results - CASE PASSED : hrmEntity-/api/hrmentity/list/retrieve -> CompetitiveLab
[2016-12-16 18:07:46.173] [INFO] results - CASE PASSED : hrmEntity-/api/hrmentity/list/retrieve -> ContactType
[2016-12-16 18:07:47.332] [INFO] results - CASE PASSED : hrmEntity-/api/hrmentity/list/retrieve -> CorrectiveAction
[2016-12-16 18:07:48.535] [INFO] results - CASE PASSED : hrmEntity-/api/hrmentity/list/retrieve -> ElectronicMedicalRecord
[2016-12-16 18:07:49.737] [INFO] results - CASE PASSED : hrmEntity-/api/hrmentity/list/retrieve -> OpportunityStage
[2016-12-16 18:07:50.878] [INFO] results - CASE PASSED : hrmEntity-/api/hrmentity/list/retrieve -> OpportunityType
[2016-12-16 18:07:52.028] [INFO] results - CASE PASSED : hrmEntity-/api/hrmentity/list/retrieve -> OrganizationType
[2016-12-16 18:07:53.231] [INFO] results - CASE PASSED : hrmEntity-/api/hrmentity/list/retrieve -> RootCause
[2016-12-16 18:07:54.407] [INFO] results - CASE PASSED : hrmEntity-/api/hrmentity/list/retrieve -> Specialty
[2016-12-16 18:07:55.531] [INFO] results - CASE PASSED : hrmEntity-/api/hrmentity/activitystatus/list/retrieve
[2016-12-16 18:07:56.642] [INFO] results - CASE PASSED : hrmEntity-/api/activity/priority/list
[2016-12-16 18:07:57.958] [INFO] results - CASE PASSED : search.retrieveViewId -> AccessControlTree
[2016-12-16 18:07:59.345] [INFO] results - CASE PASSED : search.retrieveViewId -> Campaign
[2016-12-16 18:08:00.643] [INFO] results - CASE PASSED : search.retrieveViewId -> Message
[2016-12-16 18:08:02.052] [INFO] results - CASE PASSED : search.retrieveViewId -> Notification
[2016-12-16 18:08:03.812] [INFO] results - CASE PASSED : search.retrieveViewId -> OrganizationActivities
